8606 
9478 
9356 
8830 
8210 
7978 
7594 
7260 
5994 
4081 
2890 
1304 
-2253 
-9741 
-16723 
-18253 
-16187 
-17704 
-20524 
-19612 
-11807 
-2871 
2865 
6942 
10840 
15458 
17324 
16815 
14426 
11850 
6708 
488 
-4092 
-5843 
-7291 
-9315 
-10838 
-11532 
-10164 
-7983 
-6050 
-6228 
-6595 
-6128 
-3992 
-1485 
576 
2279 
4603 
7752 
10330 
12319 
13413 
13131 
10059 
5935 
2148 
-1309 
-5696 
-10702 
-14500 
-15955 
-15021 
-13088 
-10192 
-6847 
-3170 
550 
4219 
7106 
8455 
8563 
7427 
5588 
3623 
1997 
-386 
-3310 
-5056 
-5738 
-6293 
-6260 
-5907 
-6187 
-6378 
-5265 
-3599 
-2543 
-1354 
-43 
1031 
2356 
3954 
4581 
3905 
2985 
1933 
437 
-1175 
-2670 
-4199 
-5239 
-5287 
-4554 
-3351 
-1662 
187 
1912 
3670 
5228 
6081 
6174 
5805 
5153 
4131 
2700 
1074 
-231 
-1055 
-1973 
-2499 
-2187 
-1318 
-653 
639 
2309 
3720 
4820 
6538 
7858 
8602 
9381 
9686 
9618 
9639 
9832 
9148 
8431 
7928 
6877 
5109 
3556 
2024 
-854 
-8383 
-16971 
-19412 
-16943 
-18070 
-21952 
-22202 
-14761 
-5193 
1241 
6023 
10299 
15401 
17947 
18030 
16261 
14147 
9055 
1979 
-3195 
-5307 
-7029 
-9481 
-11273 
-12448 
-11660 
-9368 
-6826 
-6500 
-7162 
-6985 
-4799 
-1909 
372 
1984 
4228 
7406 
10172 
12365 
13997 
14253 
11408 
7189 
3348 
-29 
-4415 
-9731 
-14204 
-16457 
-16177 
-14491 
-11610 
-8261 
-4688 
-943 
3254 
7281 
9476 
9370 
8117 
6916 
5220 
3207 
1154 
-1772 
-5023 
-6690 
-6786 
-6738 
-7085 
-7291 
-7456 
-6828 
-4619 
-2301 
-1191 
-171 
1444 
3048 
4454 
5456 
5121 
3511 
2002 
812 
-771 
-2720 
-4369 
-5674 
-6295 
-5671 
-4174 
-2561 
-744 
1240 
3303 
5320 
6816 
7221 
6870 
6246 
5178 
3687 
1994 
282 
-1201 
-2294 
-2874 
-2793 
-1976 
-1132 
76 
1820 
3843 
5123 
6303 
7748 
8773 
9320 
9853 
10409 
10158 
9650 
9126 
8889 
8210 
7391 
5142 
3535 
1986 
40 
-5200 
-14303 
-19573 
-18024 
-17098 
-20203 
-22073 
-17713 
-7939 
-584 
4938 
8993 
14123 
17754 
18384 
16901 
14805 
11363 
4515 
-1838 
-5395 
-6767 
-9097 
-10937 
-12439 
-12279 
-10424 
-7571 
-6103 
-6380 
-6322 
-4980 
-2230 
166 
2082 
3859 
6622 
9368 
11501 
13143 
14062 
12479 
8446 
4320 
799 
-3055 
-8068 
-12780 
-15888 
-16450 
-15230 
-12671 
-9241 
-5752 
-2127 
1687 
5828 
8631 
9418 
8136 
6471 
5300 
4047 
1967 
-622 
-2935 
-4554 
-5081 
-5077 
-5094 
-5573 
-6037 
-6154 
-5269 
-3800 
-2514 
-1874 
-1036 
539 
2450 
3824 
4169 
3711 
2775 
1845 
747 
-726 
-2398 
-3681 
-4531 
-4571 
-3720 
-2330 
-912 
544 
2197 
3889 
5205 
5726 
5596 
5113 
4421 
3448 
2166 
769 
-356 
-1231 
-1894 
-2071 
-1590 
-1024 
-225 
1092 
2618 
4181 
5626 
6842 
7922 
8705 
8829 
9313 
9855 
9942 
9220 
8438 
8146 
7935 
6932 
5492 
3441 
1026 
-880 
-6881 
-15770 
-19850 
-17305 
-17577 
-21112 
-21832 
-15094 
-5508 
1074 
5901 
9773 
15237 
18362 
18200 
15714 
13833 
9615 
2405 
-3373 
-5711 
-7240 
-9851 
-11488 
-12444 
-11596 
-9410 
-6824 
-6187 
-6403 
-5979 
-4184 
-1595 
654 
2296 
4203 
7196 
9870 
11800 
13173 
13631 
11206 
7133 
3302 
-131 
-4407 
-9540 
-13797 
-16136 
-16001 
-14506 
-11720 
-8246 
-4422 
-550 
3450 
7418 
9691 
9577 
7909 
6738 
5207 
2471 
-67 
-1708 
-3528 
-4994 
-5493 
-5538 
-5761 
-6022 
-6069 
-6218 
-5615 
-4377 
-3166 
-2121 
-403 
1479 
3043 
4262 
4874 
4541 
3443 
2148 
385 
-1583 
-3209 
-4335 
-5173 
-5201 
-4325 
-2888 
-1149 
726 
2540 
4075 
5267 
5792 
5802 
5423 
4592 
3193 
1784 
631 
