time ./a.out ../speech_sample/A_a.dat 0 512 > ../gnuplot/A_a_ex512.dat

DFT
l	0m0.028s
user	0m0.024s
sys	0m0.002s
-1000-
real	0m22.099s
user	0m22.075s
sys	0m0.021s

FFT
real	0m0.007s
user	0m0.002s
sys	0m0.002s
-1000-
real	0m0.093s
user	0m0.086s
sys	0m0.002s
